﻿N-NUMBER,SERIAL NUMBER,MFR MDL CODE,ENG MFR MDL,YEAR MFR,TYPE REGISTRANT,NAME,STREET,STREET2,CITY,STATE,ZIP CODE,REGION,COUNTY,COUNTRY,LAST ACTION DATE,CERT ISSUE DATE,CERTIFICATION,TYPE AIRCRAFT,TYPE ENGINE,STATUS CODE,MODE S CODE,FRACT OWNER,AIR WORTH DATE,OTHER NAMES(1),OTHER NAMES(2),OTHER NAMES(3),OTHER NAMES(4),OTHER NAMES(5),EXPIRATION DATE,UNIQUE ID,KIT MFR, KIT MODEL,MODE S CODE HEX,
100  ,5334                          ,7100510,17003,1940,1,BENE MARY D                                       ,PO BOX 329                       ,                                 ,KETCHUM           ,OK,743490329 ,2,097,US,20200105,20050506,1         ,4,1 ,V ,50002263, ,19540430,                                                  ,                                                  ,                                                  ,                                                  ,                                                  ,20230430,00600060,                              ,                    ,A004B3    ,
10001,A28                           ,9601202,67007,1928,1,STOOS ROBERT A                                    ,PO BOX 1056                      ,                                 ,LAKELAND          ,FL,338021056 ,7,105,US,20190227,20190227,1         ,4,1 ,V ,50003446, ,        ,                                                  ,                                                  ,                                                  ,                                                  ,                                                  ,20220228,00432072,                              ,                    ,A00726    ,
10003,1                             ,056336T,     ,    ,1,CAMPBELL CHARLES N                                ,604 CORDOVA CT                   ,                                 ,SALISBURY         ,NC,281466337 ,1,159,US,20171012,20150313,          ,4,8 ,26,50003450, ,        ,                                                  ,                                                  ,                                                  ,                                                  ,                                                  ,20210331,01173853,                              ,                    ,A00728    ,
10004,T18208245                     ,2072738,     ,    ,7,ETOS AIR LLC                                      ,PO BOX 288                       ,                                 ,NEW LONDON        ,TX,756820288 ,2,401,US,20181013,20130312,          ,4,1 ,V ,50003451, ,        ,                                                  ,                                                  ,                                                  ,                                                  ,                                                  ,20220331,00102879,                              ,                    ,A00729    ,
10006,BG-72                         ,1152020,17026,1955,1,COUTCHES ROBERT HERCULES DBA                      ,550 AIRWAY BLVD                  ,                                 ,LIVERMORE         ,CA,945519533 ,4,001,US,20201125,19980826,1U        ,4,1 ,V ,50003453, ,19710909,AERO FLIGHT AVIATION                              ,                                                  ,                                                  ,                                                  ,                                                  ,20240229,00480110,                              ,                    ,A0072B    ,
10007,21058839                      ,2073430,17032,1966,1,INSKO MATTHEW T                                   ,5804 HILLTOP ST                  ,                                 ,PAPILLION         ,NE,681332403 ,3,055,US,20190102,20190102,1N        ,4,1 ,V ,50003454, ,19670128,                                                  ,                                                  ,                                                  ,                                                  ,                                                  ,20220131,00470110,                              ,                    ,A0072C    ,
10009,79-032                        ,8930105,41525,1979,3,HENDRICKSON FLYING SERVICE INC                    ,21532 QUITNO RD                  ,                                 ,ROCHELLE          ,IL,610689413 ,C,141,US,20190311,20100211,31        ,6,1 ,V ,50003456, ,19790809,                                                  ,                                                  ,                                                  ,                                                  ,                                                  ,20220831,00460110,                              ,                    ,A0072E    ,
1000A,3255                          ,3801213,00000,1978,1,CARDEN ERIC W                                     ,130 VAUGHNWOOD TRCE              ,                                 ,HUNTSVILLE        ,AL,358064087 ,7,089,US,20180709,20151215,1G        ,1,0 ,V ,50003415, ,19790427,                                                  ,                                                  ,                                                  ,                                                  ,                                                  ,20211231,00802272,                              ,                    ,A0070D    ,
1000E,550-1011                      ,2076604,52065,2002,3,WR HESS CO                                        ,3636 S MERIDIAN AVE              ,                                 ,OKLAHOMA CITY     ,OK,731192420 ,2,109,US,20191010,20160216,1T        ,5,5 ,V ,50003421, ,20160219,                                                  ,                                                  ,                                                  ,                                                  ,                                                  ,20220228,01207444,                              ,                    ,A00711    ,
318SJ,18282251                      ,2072703,41808,2010,3,OBR LEASING                                       ,PO BOX 725                       ,                                 ,BRISTOW           ,VA,201360725 ,1,107,US,20191121,20110114,1N        ,4,1 ,V ,50663042, ,20100916,                                                  ,                                                  ,                                                  ,                                                  ,                                                  ,20230131,01056226,                              ,                    ,A36622    ,
374HK,FC374                         ,061003A,33909,2017,3,GENERAL ATOMICS AERONAUTICAL SYSTEMS INC          ,14200 KIRKHAM WAY                ,                                 ,POWAY             ,CA,920647103 ,4,073,US,20200102,20170508,49A9B9C   ,4,2 ,V ,51041540, ,20201123,                                                  ,                                                  ,                                                  ,                                                  ,                                                  ,20230531,01248539,                              ,                    ,A44360    ,
